^C:\USERS\USER\DOCUMENTS\VISUAL STUDIO 2015\PROJECTS\HW3_YUVAL_HERRMAN\HW3_YUVAL_HERRMAN\DEBUG\MAIN.OBJ|C:\USERS\USER\DOCUMENTS\VISUAL STUDIO 2015\PROJECTS\HW3_YUVAL_HERRMAN\HW3_YUVAL_HERRMAN\DEBUG\VECTOR.OBJ
C:\USERS\USER\DOCUMENTS\VISUAL STUDIO 2015\PROJECTS\HW3_YUVAL_HERRMAN\DEBUG\HW3_YUVAL_HERRMAN.ILK
C:\USERS\USER\DOCUMENTS\VISUAL STUDIO 2015\PROJECTS\HW3_YUVAL_HERRMAN\DEBUG\HW3_YUVAL_HERRMAN.EXE
C:\USERS\USER\DOCUMENTS\VISUAL STUDIO 2015\PROJECTS\HW3_YUVAL_HERRMAN\DEBUG\HW3_YUVAL_HERRMAN.PDB
